{
    "type": "script",
    "description": "left-jump",
    "store": {},
    "modes": [],
    "usageCount": 14,
    "prompt": false,
    "omitTrigger": false,
    "showInTrayMenu": false,
    "abbreviation": {
        "abbreviations": [],
        "backspace": true,
        "ignoreCase": false,
        "immediate": false,
        "triggerInside": false,
        "wordChars": "[\\w]"
    },
    "hotkey": {
        "modifiers": [
            "<hyper>"
        ],
        "hotKey": "a"
    },
    "filter": {
        "regex": "joplin.Joplin",
        "isRecursive": false
    }
}