{
    "type": "script",
    "description": "back",
    "store": {},
    "modes": [
        3
    ],
    "usageCount": 5,
    "prompt": false,
    "omitTrigger": false,
    "showInTrayMenu": false,
    "abbreviation": {
        "abbreviations": [],
        "backspace": true,
        "ignoreCase": false,
        "immediate": false,
        "triggerInside": false,
        "wordChars": "[\\w]"
    },
    "hotkey": {
        "modifiers": [
            "<hyper>"
        ],
        "hotKey": "1"
    },
    "filter": {
        "regex": "Navigator.firefox",
        "isRecursive": false
    }
}