{
    "type": "script",
    "description": "searchTab",
    "store": {},
    "modes": [
        3
    ],
    "usageCount": 39,
    "prompt": false,
    "omitTrigger": false,
    "showInTrayMenu": false,
    "abbreviation": {
        "abbreviations": [],
        "backspace": true,
        "ignoreCase": false,
        "immediate": false,
        "triggerInside": false,
        "wordChars": "[\\w]"
    },
    "hotkey": {
        "modifiers": [
            "<ctrl>",
            "<shift>"
        ],
        "hotKey": "a"
    },
    "filter": {
        "regex": "Navigator.firefox",
        "isRecursive": false
    }
}