{
    "type": "script",
    "description": "delete after cursor",
    "store": {},
    "modes": [
        3
    ],
    "usageCount": 0,
    "prompt": false,
    "omitTrigger": false,
    "showInTrayMenu": false,
    "abbreviation": {
        "abbreviations": [],
        "backspace": true,
        "ignoreCase": false,
        "immediate": false,
        "triggerInside": false,
        "wordChars": "[\\w]"
    },
    "hotkey": {
        "modifiers": [
            "<hyper>"
        ],
        "hotKey": "r"
    },
    "filter": {
        "regex": "joplin.Joplin",
        "isRecursive": false
    }
}