{
    "type": "folder",
    "title": "word",
    "modes": [],
    "usageCount": 0,
    "showInTrayMenu": false,
    "abbreviation": {
        "abbreviations": [],
        "backspace": true,
        "ignoreCase": false,
        "immediate": false,
        "triggerInside": false,
        "wordChars": "[\\w]"
    },
    "hotkey": {
        "modifiers": [],
        "hotKey": null
    },
    "filter": {
        "regex": null,
        "isRecursive": false
    }
}