{
    "type": "script",
    "description": "down",
    "store": {},
    "modes": [
        3
    ],
    "usageCount": 481,
    "prompt": false,
    "omitTrigger": false,
    "showInTrayMenu": false,
    "abbreviation": {
        "abbreviations": [],
        "backspace": true,
        "ignoreCase": false,
        "immediate": false,
        "triggerInside": false,
        "wordChars": "[\\w]"
    },
    "hotkey": {
        "modifiers": [
            "<hyper>"
        ],
        "hotKey": "s"
    },
    "filter": {
        "regex": "illustrator.exe.illustrator.exe",
        "isRecursive": false
    }
}