{
    "type": "script",
    "description": "open file",
    "store": {},
    "modes": [
        3
    ],
    "usageCount": 0,
    "prompt": false,
    "omitTrigger": false,
    "showInTrayMenu": false,
    "abbreviation": {
        "abbreviations": [],
        "backspace": true,
        "ignoreCase": false,
        "immediate": false,
        "triggerInside": false,
        "wordChars": "[\\w]"
    },
    "hotkey": {
        "modifiers": [
            "<alt>"
        ],
        "hotKey": "p"
    },
    "filter": {
        "regex": "org.gnome.Nautilus.Org.gnome.Nautilus",
        "isRecursive": false
    }
}