{
    "type": "script",
    "description": "close-tab",
    "store": {},
    "modes": [
        3
    ],
    "usageCount": 17,
    "prompt": false,
    "omitTrigger": false,
    "showInTrayMenu": false,
    "abbreviation": {
        "abbreviations": [],
        "backspace": true,
        "ignoreCase": false,
        "immediate": false,
        "triggerInside": false,
        "wordChars": "[\\w]"
    },
    "hotkey": {
        "modifiers": [
            "<alt>"
        ],
        "hotKey": "w"
    },
    "filter": {
        "regex": "telegram-desktop.TelegramDesktopTelegramDesktop",
        "isRecursive": false
    }
}