{
    "type": "script",
    "description": "right-select word",
    "store": {},
    "modes": [
        3
    ],
    "usageCount": 5,
    "prompt": false,
    "omitTrigger": false,
    "showInTrayMenu": false,
    "abbreviation": {
        "abbreviations": [],
        "backspace": true,
        "ignoreCase": false,
        "immediate": false,
        "triggerInside": false,
        "wordChars": "[\\w]"
    },
    "hotkey": {
        "modifiers": [
            "<hyper>"
        ],
        "hotKey": "."
    },
    "filter": {
        "regex": "org.gnome.Nautilus.Org.gnome.Nautilus",
        "isRecursive": false
    }
}